{
  "development": {
    "username": "root",
    "password": null,
    "database": "beparked",
    "host": "127.0.0.1",
    "dialect": "mysql"
  },
  "test": {
    "username": "root",
    "password": "my-secret-pw",
    "database": "beparked_test",
    "host": "mysql",
    "dialect": "mysql"
  },
  "production": {
    "username": "root",
    "password": null,
    "database": "database_production",
    "host": "127.0.0.1",
    "dialect": "mysql"
  }
}
